{
	"info": {
		"_postman_id": "af416f47-6b9a-4f72-a201-45594e7a96c2",
		"name": "M1",
		"schema": "https://schema.getpostman.com/json/collection/v2.1.0/collection.json",
		"_exporter_id": "29944061"
	},
	"item": [
		{
			"name": "login",
			"item": [
				{
					"name": "login",
					"request": {
						"method": "POST",
						"header": [
							{
								"key": "Content-Type",
								"value": "application/json",
								"type": "text"
							}
						],
						"body": {
							"mode": "raw",
							"raw": "{\r\n    \"email\" : \"hrivonandrasana@gmail.com\",\r\n    \"password\" : \"root\"\r\n}",
							"options": {
								"raw": {
									"language": "json"
								}
							}
						},
						"url": {
							"raw": "{{m1-url}}/user/login",
							"host": [
								"{{m1-url}}"
							],
							"path": [
								"user",
								"login"
							]
						}
					},
					"response": []
				},
				{
					"name": "service",
					"request": {
						"method": "POST",
						"header": [
							{
								"key": "token_key",
								"value": "eyJhbGciOiJIUzI1NiIsInR5cCI6IkpXVCJ9.eyJ0aW1lIjoiMjAyNC0wMi0wMVQxMTozMzozMS41NDlaIiwicGFzc3dvcmRfaWQiOiIiLCJleHAiOjE3MDcwNDY0MTEsImlhdCI6MTcwNjc4NzIxMX0.Kcta7mCkAswhztsltdkDZlGqYUENefdF9Psu1RmS0NU",
								"type": "text"
							},
							{
								"key": "user_id",
								"value": "65baaca959faceb32a60bb20",
								"type": "text"
							}
						],
						"url": {
							"raw": "{{m1-url}}/services/client",
							"host": [
								"{{m1-url}}"
							],
							"path": [
								"services",
								"client"
							]
						}
					},
					"response": []
				},
				{
					"name": "bodyParts",
					"request": {
						"method": "GET",
						"header": [],
						"url": {
							"raw": "{{m1-url}}/user/bodyparts",
							"host": [
								"{{m1-url}}"
							],
							"path": [
								"user",
								"bodyparts"
							]
						}
					},
					"response": []
				},
				{
					"name": "register client",
					"request": {
						"method": "POST",
						"header": [],
						"body": {
							"mode": "raw",
							"raw": "{\r\n    \"name\" : \"Jane\",\r\n    \"firstname\" : \"Sunshine\",\r\n    \"email\" : \"jane.sunshine@gmail.com\",\r\n    \"password\" : \"root\",\r\n    \"photo\" : \"\",\r\n    \"birthdate\" : \"2024-01-01\",\r\n    \"bodyPart\" : [\r\n        {\r\n            \"_id\" : \"65bba3be53d4b1ba44d254a3\",\r\n            \"types\" : [\r\n                {\r\n                    \"_id\": \"65bc4fa20d41bdb68ca3791c\"\r\n                }\r\n            ]\r\n        }\r\n    ]\r\n}",
							"options": {
								"raw": {
									"language": "json"
								}
							}
						},
						"url": {
							"raw": "{{m1-url}}/user/register/client",
							"host": [
								"{{m1-url}}"
							],
							"path": [
								"user",
								"register",
								"client"
							]
						}
					},
					"response": []
				},
				{
					"name": "register employee",
					"request": {
						"method": "POST",
						"header": [
							{
								"key": "token_key",
								"value": "{{tokenValue}}",
								"type": "text"
							},
							{
								"key": "user_id",
								"value": "65baaca959faceb32a60bb20",
								"type": "text"
							}
						],
						"body": {
							"mode": "raw",
							"raw": "{\r\n    \"name\" : \"Jane\",\r\n    \"firstname\" : \"Sunshine\",\r\n    \"email\" : \"jane.sunshine@gmail.com\",\r\n    \"password\" : \"root\",\r\n    \"photo\" : \"\",\r\n    \"birthdate\" : \"2024-01-01\",\r\n    \"bodyPart\" : [\r\n        {\r\n            \"_id\" : \"65bba3be53d4b1ba44d254a3\",\r\n            \"types\" : [\r\n                {\r\n                    \"_id\": \"65bc4fa20d41bdb68ca3791c\"\r\n                }\r\n            ]\r\n        }\r\n    ]\r\n}",
							"options": {
								"raw": {
									"language": "json"
								}
							}
						},
						"url": {
							"raw": "{{m1-url}}/user/register/employee",
							"host": [
								"{{m1-url}}"
							],
							"path": [
								"user",
								"register",
								"employee"
							],
							"query": [
								{
									"key": "",
									"value": "",
									"disabled": true
								},
								{
									"key": "",
									"value": "",
									"disabled": true
								}
							]
						}
					},
					"response": []
				}
			]
		}
	],
	"event": [
		{
			"listen": "prerequest",
			"script": {
				"type": "text/javascript",
				"exec": [
					""
				]
			}
		},
		{
			"listen": "test",
			"script": {
				"type": "text/javascript",
				"exec": [
					""
				]
			}
		}
	],
	"variable": [
		{
			"key": "m1-url",
			"value": "localhost:3000"
		},
		{
			"key": "tokenValue",
			"value": "eyJhbGciOiJIUzI1NiIsInR5cCI6IkpXVCJ9.eyJ0aW1lIjoiMjAyNC0wMi0wMlQwMjo0ODo0Ny40OTFaIiwicGFzc3dvcmRfaWQiOiIiLCJleHAiOjE3MDcxMDEzMjcsImlhdCI6MTcwNjg0MjEyN30.w0Pr-mDFb2xp5Nwj_bAHVxgYyd9ABPweJ1JBxuGLfxc"
		}
	]
}